   text	   data	    bss	    dec	    hex	filename
    302	      0	      0	    302	    12e	out/addr_trans.o
   1088	      0	      4	   1092	    444	out/blkdev.o
    268	      0	   2048	   2316	    90c	out/circbuf.o
      0	     16	      0	     16	     10	out/cust_msdc.o
      0	    380	      0	    380	    17c	out/custom_emi.o
    145	    960	      0	   1105	    451	out/cust_part.o
    263	      0	      0	    263	    107	out/device_apc.o
     33	      0	      0	     33	     21	out/div0.o
   2095	      0	      5	   2100	    834	out/download.o
    201	      0	      4	    205	     cd	out/dram_buffer.o
   4223	     40	     36	   4299	   10cb	out/dramc_calib.o
   1921	    160	     68	   2149	    865	out/dramc_dle_cal.o
   3468	    244	    192	   3904	    f40	out/dramc_dqs_gw.o
    320	      0	      0	    320	    140	out/eabi_idiv.o
    200	      0	      0	    200	     c8	out/eabi.o
    332	      0	      0	    332	    14c	out/eabi_uldivmod.o
   6350	    380	     34	   6764	   1a6c	out/emi.o
   2374	      0	     83	   2457	    999	out/fan5405.o
   5598	      0	      0	   5598	   15de	out/fpc_sw_repair2sw.o
   1470	      4	      0	   1474	    5c2	out/gpio.o
    694	      8	      4	    706	    2c2	out/handshake_uart.o
   1293	      8	      0	   1301	    515	out/handshake_usb.o
   5748	      0	    148	   5896	   1708	out/i2c.o
    464	      0	      0	    464	    1d0	out/init.o
    795	      0	      0	    795	    31b	out/keypad.o
   2209	      0	      0	   2209	    8a1	out/main.o
   1386	      0	      0	   1386	    56a	out/memory.o
    188	      0	      0	    188	     bc	out/memory_test.o
   1010	      0	    200	   1210	    4ba	out/mmc_common_inter.o
   7548	      0	   1640	   9188	   23e4	out/mmc_core.o
      0	      0	      0	      0	      0	out/mmc_test.o
   8208	      0	    224	   8432	   20f0	out/msdc.o
    130	      0	      0	    130	     82	out/msdc_utils.o
   1163	      0	   8344	   9507	   2523	out/partition.o
   1192	      0	      0	   1192	    4a8	out/part.o
   3891	      0	   3136	   7027	   1b73	out/platform.o
   2290	      0	      0	   2290	    8f2	out/pll.o
   3352	      0	     12	   3364	    d24	out/pmic_6323.o
   5230	      0	      0	   5230	   146e	out/pmic_wrap_init.o
    924	      4	  20500	  21428	   53b4	out/print.o
   4545	      0	      1	   4546	   11c2	out/rtc.o
    419	      0	      0	    419	    1a3	out/sec_auth.o
    510	      0	      0	    510	    1fe	out/sec_boot.o
      2	      0	      0	      2	      2	out/sec_ctrl.o
      2	      0	      0	      2	      2	out/sec_flashtool_cfg.o
    205	      0	    512	    717	    2cd	out/sec_key.o
   1259	      0	      8	   1267	    4f3	out/sec.o
    325	      0	      0	    325	    145	out/sec_region.o
    101	    960	      0	   1061	    425	out/sec_rom_info.o
    464	      0	      4	    468	    1d4	out/sec_secroimg.o
   1703	      0	      2	   1705	    6a9	out/sec_util.o
    158	      0	      0	    158	     9e	out/stdlib.o
    130	      0	      0	    130	     82	out/string.o
    382	      0	      8	    390	    186	out/timer.o
    641	      4	      0	    645	    285	out/uart.o
   3321	     11	     24	   3356	    d1c	out/usbd.o
    450	      0	      0	    450	    1c2	out/usbphy.o
   2079	    167	   3676	   5922	   1722	out/usbtty.o
   2183	      0	     20	   2203	    89b	out/wdt.o
