重庆	重庆	重庆市九龙坡区石桥铺石杨路17号附19号飞联总店室	023-6888 1063																																																																																																																																																																																																																																																											
重庆	重庆	重庆市大坪爱华龙都16楼11号-6号	023-8806 0026																																																																																																																																																																																																																																																											
重庆	万州	重庆市万州区太白路136号千禧公寓5-B1	023-5812 3898																																																																																																																																																																																																																																																											
重庆	开县	重庆市开县州大道开中校正门右移动营业厅	023-8593 7766																																																																																																																																																																																																																																																											
重庆	潼南	潼南县梓潼镇正兴街56号	023-4456 1833																																																																																																																																																																																																																																																											
重庆	巫溪	重庆巫溪县桥南街6号	4007 889 881																																																																																																																																																																																																																																																											
重庆	渝中	重庆市渝中区长江二路大坪江洲宾馆停车场内共益通讯	02363716181																																																																																																																																																																																																																																																											
重庆	渝中	重庆市渝中区大坪新浪通信城A座607-608室  	023-68007700																																																																																																																																																																																																																																																											
